…
### Points of the team

Points of the team

``` r
alfa_romeo_points <- alfa_romeo_2019 %>%
  group_by(Track) %>%
  summarise(TotalPoints = sum(Points, na.rm = TRUE)) %>%
  ungroup()

alfa_romeo_points
```

    ## # A tibble: 21 × 2
    ##    Track         TotalPoints
    ##    <fct>               <int>
    ##  1 Australia               4
    ##  2 Bahrain                 6
    ##  3 China                   2
    ##  4 Azerbaijan              1
    ##  5 Spain                   0
    ##  6 Monaco                  0
    ##  7 Canada                  0
    ##  8 France                  6
    ##  9 Austria                 3
    ## 10 Great Britain           4
    ## # ℹ 11 more rows
…
