…
In his first season with Ferrari Charles Leclerc beats Sebastian Vettel
who was a 4 world championship.

### Team points

``` r
ferrari_points <- ferrari_2019 %>%
  group_by(Track) %>%
  summarise(TotalPoints = sum(Points, na.rm = TRUE)) %>%
  ungroup()

ferrari_points
```

    ## # A tibble: 21 × 2
    ##    Track         TotalPoints
    ##    <fct>               <int>
    ##  1 Australia              22
    ##  2 Bahrain                26
    ##  3 China                  25
    ##  4 Azerbaijan             26
    ##  5 Spain                  22
    ##  6 Monaco                 18
    ##  7 Canada                 33
    ##  8 France                 26
    ##  9 Austria                30
    ## 10 Great Britain          15
    ## # ℹ 11 more rows
…
