…
### Points of the team

Points of the team

``` r
haas_points <- haas_2019 %>%
  group_by(Track) %>%
  summarise(TotalPoints = sum(Points, na.rm = TRUE)) %>%
  ungroup()

haas_points
```

    ## # A tibble: 21 × 2
    ##    Track         TotalPoints
    ##    <fct>               <int>
    ##  1 Australia               8
    ##  2 Bahrain                 0
    ##  3 China                   0
    ##  4 Azerbaijan              0
    ##  5 Spain                   7
    ##  6 Monaco                  1
    ##  7 Canada                  0
    ##  8 France                  0
    ##  9 Austria                 0
    ## 10 Great Britain           0
    ## # ℹ 11 more rows
…
