…
### Points of the team

Points of the team

``` r
mclaren_points <- mclaren_2019 %>%
  group_by(Track) %>%
  summarise(TotalPoints = sum(Points, na.rm = TRUE)) %>%
  ungroup()

mclaren_points
```

    ## # A tibble: 21 × 2
    ##    Track         TotalPoints
    ##    <fct>               <int>
    ##  1 Australia               0
    ##  2 Bahrain                 8
    ##  3 China                   0
    ##  4 Azerbaijan             10
    ##  5 Spain                   4
    ##  6 Monaco                  8
    ##  7 Canada                  0
    ##  8 France                 10
    ##  9 Austria                12
    ## 10 Great Britain           8
    ## # ℹ 11 more rows
…
