…
### Total points

Total points of the team trough all the season

``` r
mercedes_points <- mercedes_data %>%
  group_by(Track) %>%
  summarise(TotalPoints = sum(Points, na.rm = TRUE)) %>%
  ungroup()

mercedes_points
```

    ## # A tibble: 21 × 2
    ##    Track         TotalPoints
    ##    <fct>               <int>
    ##  1 Australia              44
    ##  2 Bahrain                43
    ##  3 China                  43
    ##  4 Azerbaijan             43
    ##  5 Spain                  44
    ##  6 Monaco                 40
    ##  7 Canada                 38
    ##  8 France                 43
    ##  9 Austria                25
    ## 10 Great Britain          44
    ## # ℹ 11 more rows
…
