…
### Points of the team

Points of the team

``` r
racing_point_points <- racing_point_2019 %>%
  group_by(Track) %>%
  summarise(TotalPoints = sum(Points, na.rm = TRUE)) %>%
  ungroup()

racing_point_points
```

    ## # A tibble: 21 × 2
    ##    Track         TotalPoints
    ##    <fct>               <int>
    ##  1 Australia               2
    ##  2 Bahrain                 1
    ##  3 China                   4
    ##  4 Azerbaijan             10
    ##  5 Spain                   0
    ##  6 Monaco                  0
    ##  7 Canada                  2
    ##  8 France                  0
    ##  9 Austria                 0
    ## 10 Great Britain           0
    ## # ℹ 11 more rows
…
