…
### Points of the team

Points of the team

``` r
redbull_points <- redbull_2019 %>%
  group_by(Track) %>%
  summarise(TotalPoints = sum(Points, na.rm = TRUE)) %>%
  ungroup()

redbull_points
```

    ## # A tibble: 21 × 2
    ##    Track         TotalPoints
    ##    <fct>               <int>
    ##  1 Australia              15
    ##  2 Bahrain                16
    ##  3 China                  21
    ##  4 Azerbaijan             12
    ##  5 Spain                  23
    ##  6 Monaco                 23
    ##  7 Canada                 14
    ##  8 France                 13
    ##  9 Austria                32
    ## 10 Great Britain          22
    ## # ℹ 11 more rows
…
