…
### Points of the team

Points of the team

``` r
renault_points <- renault_2019 %>%
  group_by(Track) %>%
  summarise(TotalPoints = sum(Points, na.rm = TRUE)) %>%
  ungroup()

renault_points
```

    ## # A tibble: 21 × 2
    ##    Track         TotalPoints
    ##    <fct>               <int>
    ##  1 Australia               6
    ##  2 Bahrain                 0
    ##  3 China                   6
    ##  4 Azerbaijan              0
    ##  5 Spain                   0
    ##  6 Monaco                  2
    ##  7 Canada                 14
    ##  8 France                  4
    ##  9 Austria                 0
    ## 10 Great Britain           7
    ## # ℹ 11 more rows
…
