…
### Points of the team

Points of the team

``` r
toro_rosso_points <- toro_rosso_2019 %>%
  group_by(Track) %>%
  summarise(TotalPoints = sum(Points, na.rm = TRUE)) %>%
  ungroup()

toro_rosso_points
```

    ## # A tibble: 21 × 2
    ##    Track         TotalPoints
    ##    <fct>               <int>
    ##  1 Australia               1
    ##  2 Bahrain                 2
    ##  3 China                   1
    ##  4 Azerbaijan              0
    ##  5 Spain                   2
    ##  6 Monaco                 10
    ##  7 Canada                  1
    ##  8 France                  0
    ##  9 Austria                 0
    ## 10 Great Britain           2
    ## # ℹ 11 more rows
…
