…
### Points of the team

Points of the team

``` r
williams_points <- williams_2019 %>%
  group_by(Track) %>%
  summarise(TotalPoints = sum(Points, na.rm = TRUE)) %>%
  ungroup()

williams_points
```

    ## # A tibble: 21 × 2
    ##    Track         TotalPoints
    ##    <fct>               <int>
    ##  1 Australia               0
    ##  2 Bahrain                 0
    ##  3 China                   0
    ##  4 Azerbaijan              0
    ##  5 Spain                   0
    ##  6 Monaco                  0
    ##  7 Canada                  0
    ##  8 France                  0
    ##  9 Austria                 0
    ## 10 Great Britain           0
    ## # ℹ 11 more rows

### Track points

We analyzed which was the circuits were the team score more points

``` r
top_circuits <- williams_points %>%
  top_n(3, wt = TotalPoints) %>%
  arrange(desc(TotalPoints))

top_circuits
```

    ## # A tibble: 21 × 2
    ##    Track      TotalPoints
    ##    <fct>            <int>
    ##  1 Germany              1
    ##  2 Australia            0
    ##  3 Bahrain              0
    ##  4 China                0
    ##  5 Azerbaijan           0
    ##  6 Spain                0
    ##  7 Monaco               0
    ##  8 Canada               0
    ##  9 France               0
    ## 10 Austria              0
    ## # ℹ 11 more rows
…
